Plot ID,Field Status,Sowing date,Day of year,Village,Loan Collected
BN000001,Harvested,2020-08-05,218,,Yes
BN000002,Sowed,26th of June,178,I don’t know,2
BN000003,Harvested,2020-07-25,207,Balau,I did not receive a loan
BN000003,Harvested,2020-07-25,207,Balau,I did not receive a loan
BN000004,Abandoned,2018-09-05,,7898,#4bb?